0.8689907953400352 0.6268848089169352 0.8878116496823214 0.8946524710683356 0.717056171799573 0.5584746890376755 0.8232006994960847 0.9210846504092834 0.6174563129408498 0.5195422944998862 0.7819706829286279 0.9430550188946855 0.5990614167961344 0.45287485423108487 0.757274068159262 0.913350179938072 0.5487965912803504 0.34712853334652666 0.7449363287377326 0.854038995058147 0.5184625051308037 0.28981255406444023 0.7207605923553215 0.7781977974764405 0.5273219721654555 0.2179055547980182 0.7131243240618381 0.6941618145575252 0.5136432043902742 0.17089508068260653 0.6778454494965453 0.5959543655261533 0.4980956073772924 0.12803859071972815 0.6040337713169827 0.5300885896836726 0.45318047809925666 0.10657893615997815 0.5366943035925589 0.46874217897809045 
0.8826311456923498 0.4871970253779342 0.8917916980632596 0.8747628530591046 0.7449712239856153 0.48239139863245206 0.8035335500430244 0.8793643225629597 0.6557114023163936 0.4941539295737505 0.761071652737988 0.8883657762973445 0.6131224494710938 0.43510347866375626 0.7572406806175357 0.8476793412706337 0.5107095665713075 0.3306589795137783 0.7141334019323025 0.7834430269095671 0.4623348856237523 0.2994052614845603 0.6955566849809881 0.7411446231326121 0.46124734277954316 0.24844748910680656 0.689272061022819 0.7195927152311322 0.4322528641052632 0.18504815600424912 0.6474745021038114 0.6127315552843996 0.4203625820622851 0.14856685949612933 0.557617295770907 0.5074083861142198 0.37929328121447914 0.1436599248637066 0.5051092443802304 0.4511734734196524 
0.8932268514331846 0.3685838210421113 0.9203774842185464 0.8169378387399621 0.7749013940949547 0.419325865846949 0.8290082907539454 0.8162226316060184 0.63757096849539 0.44697472216696227 0.7370228128437114 0.7934518868989441 0.5625446491678822 0.41645905192474647 0.7157364860445516 0.7428116696274912 0.5175884761056398 0.3473354355807001 0.6846566242238938 0.6895841060029664 0.4861995656562074 0.32550232234756715 0.6718852196529456 0.644575897853754 0.40153548137597744 0.2935312762209442 0.6350272536397645 0.6160377244231965 0.29879037290263755 0.25155729802284654 0.5561424197553491 0.5424307861777058 0.3170857170621219 0.20535249491309637 0.5110154763768678 0.4818437746101089 0.33306870530488447 0.1730236627400613 0.4784087255683653 0.4257207430077216 
0.8434301081452554 0.3824609270416734 0.8726173741445993 0.7431396849989805 0.7580250064286663 0.42953788404046583 0.8065029353201556 0.7245425444868794 0.5814795409905092 0.453595711418421 0.7135821450672474 0.7213315848110473 0.4978021297998913 0.43631610328860815 0.6729947953197373 0.6962076326703023 0.4783840605744728 0.3992830068148472 0.6305643138290042 0.6211606960511883 0.4804377548663061 0.36366097029720523 0.617643846089592 0.5474340127556714 0.4077333817585504 0.3210185153862917 0.576249979276427 0.5159405214585748 0.33764370236300106 0.27265474069269185 0.5423522860475404 0.5010705646421647 0.2990801840513254 0.21767052645799323 0.49191241519817436 0.46359291240317635 0.26678714939375986 0.15660672601364412 0.43272052133771816 0.4025544264967806 
0.7584717627151529 0.4249455638101104 0.7449037866219902 0.630373498910517 0.6885409270278358 0.45498605785768825 0.7033124466774437 0.6372218455862456 0.5660517039643493 0.48599330798958806 0.650423206613071 0.6465632658411526 0.47099236774636677 0.4654311666557472 0.6270592145894298 0.6474382251396544 0.43944358998182664 0.42230468712859237 0.5840895264452393 0.5730893908746413 0.44909454655818026 0.37711658298399464 0.5628383238682592 0.5132293318762762 0.42420622193976626 0.32850946776585627 0.5268326681834964 0.4866531912931887 0.3867306897801596 0.28445585774817606 0.5079599915548347 0.4639540709971866 0.28309010699947307 0.19459577853029839 0.4453216876752672 0.4233153490717434 0.21179423979546166 0.13564457155633713 0.39109703800052115 0.38364572934288643 
0.6923181579345764 0.41846994110799796 0.639169858711767 0.5602692290022183 0.6599809015821925 0.4385354534904396 0.6154563320561882 0.5658585473921345 0.595961205465128 0.47708897923697885 0.6071945774346734 0.5876252401296328 0.450257002664342 0.48066865214565785 0.5842078726174734 0.5853515339847476 0.39211035358363927 0.4158412216257784 0.5688355969632889 0.5420041972095593 0.3979755631750095 0.38785052575182194 0.539862483788561 0.49760889355059307 0.40414958782397015 0.3455559686416457 0.5016779383737666 0.4665676974243532 0.3858245987479452 0.30261039335253737 0.4539506574613264 0.3990994323096219 0.25753965146311364 0.23203955950146665 0.33346388708574637 0.301291295376051 0.18141277639624812 0.15777984236329157 0.30648774905103393 0.3022441444349329 
0.6500166281652563 0.3924757950947523 0.6058460675286085 0.5407719174366299 0.6331173894367654 0.4104288018809518 0.5900821934211609 0.5387702671097155 0.5706694155481485 0.45830682280495977 0.5207177618295761 0.4951270682649891 0.35945067034820105 0.5280010157510591 0.326627088345178 0.34587171492377583 0.2990136363528332 0.49946034794262323 0.3271881558465289 0.33987839231420786 0.32051887770959275 0.44794164846500106 0.3654380595742586 0.3532343063308038 0.2982987059741337 0.4116828444527353 0.2998013167710433 0.2684684820766736 0.23573774682326892 0.40019498743583115 0.19905138225179478 0.13893688855118413 0.16443176833005596 0.38204948758806173 0.09976292251223795 0.059229361503635974 0.13079095160663579 0.29386713864943254 0.10299904121191908 0.09010838049957441 
0.5397085457095097 0.5158361797535052 0.43351356669507307 0.39041604835056004 0.4810354834459073 0.5606678422460035 0.358709884650351 0.33412280994565097 0.36110506936284315 0.6261911720214364 0.20497921126436142 0.19823731835507996 0.2630980733249298 0.6242046504016285 0.09583004175685231 0.11782906272874893 0.2274969231611707 0.5974827781239085 0.09691595826132199 0.13817310306316663 0.20966012761862443 0.567792547446346 0.09417236380091958 0.11979323153718216 0.17813905944816621 0.5028166924010066 0.07904034667351224 0.05258018880070962 0.15520359723312643 0.4591761600826423 0.08083009554170914 0.02263911737787835 0.14402311058191558 0.42588432554086164 0.07669207150866748 0.03411549983774435 0.11169860342731246 0.36987690367912895 0.06826582966225045 0.04537454586217838 
0.3628057409534165 0.8162158488067153 0.10784482637540402 0.10297194089122641 0.3001216536429122 0.7825606898825577 0.0909563175356631 0.09267682239264248 0.25978015918450564 0.7262974575406732 0.09672100494639276 0.09040034545936447 0.25015253870760573 0.659877899576047 0.08452514480961279 0.07849939249587125 0.23883268656481202 0.6110723240705243 0.07830697840017471 0.07728994791564021 0.2028915726442336 0.5921905076915033 0.07836301901316742 0.07630334981067612 0.15833419789427283 0.5502540007109649 0.07489707574854065 0.04749733217187455 0.12910317063685103 0.49566978800649847 0.07799968880604087 0.03604836635155439 0.09902503081266631 0.45477711348961136 0.07149746993866007 0.03809356269619918 0.06060321474033014 0.41990445888789063 0.05980209516316203 0.03608623238337428 
0.35267335664097504 0.8744228703648189 0.07448113341064723 0.06972114447992533 0.29203155676365955 0.8173719709720078 0.08613174690238878 0.067302046179841 0.25095704571748295 0.7339968492393306 0.09125569335067713 0.06650887141109851 0.24352968376835638 0.6652629206676492 0.08420923131516178 0.054821407724300664 0.256479917852748 0.6097169723161813 0.07820284534576065 0.045954188862009 0.2087234144988228 0.6001928477014059 0.07949096854188899 0.04542076704638624 0.14124696268759238 0.5894328893574253 0.08029018486082432 0.04625230615442767 0.10242130149289745 0.5489036567676893 0.07392258835711002 0.04998884570325269 0.05906516469923695 0.47928947955926476 0.06014604846584077 0.040739496172095345 0.036236959832003805 0.43763744519998576 0.05031220085362086 0.031257195741881266 
