Input: 125.0,256.0,6000.0,256.0,16.0,128.0,198.0
Best Matches: 

Input: 29.0,8000.0,32000.0,32.0,8.0,32.0,269.0
Best Matches: 

Input: 29.0,8000.0,32000.0,32.0,8.0,32.0,220.0
Best Matches: 

Input: 125.0,2000.0,8000.0,0.0,2.0,14.0,52.0
Best Matches: 

Input: 480.0,512.0,8000.0,32.0,0.0,0.0,67.0
Best Matches: 

Input: 480.0,1000.0,4000.0,0.0,0.0,0.0,45.0
Best Matches: 

